Introduction to data wrangling and tidy data
…
--

.pull-left[
#### Select `plant_id` and `origin`

```r
plant %>%
  select(plant_id, origin) 
```

```
## # A tibble: 84 x 2
##    plant_id origin
##    <ord>    <fct> 
##  1 Qn1      Quebec
##  2 Qn1      Quebec
##  3 Qn1      Quebec
##  4 Qn1      Quebec
##  5 Qn1      Quebec
##  6 Qn1      Quebec
##  7 Qn1      Quebec
##  8 Qn2      Quebec
##  9 Qn2      Quebec
## 10 Qn2      Quebec
## # … with 74 more rows
```
]

.pull-right[
#### Select all columns *except* `treatment`

```r
plant %>%
  select(-treatment) 
```

```
## # A tibble: 84 x 4
##    plant_id origin co2_conc co2_rate
##    <ord>    <fct>     <dbl>    <dbl>
##  1 Qn1      Quebec       95     16  
##  2 Qn1      Quebec      175     30.4
##  3 Qn1      Quebec      250     34.8
##  4 Qn1      Quebec      350     37.2
##  5 Qn1      Quebec      500     35.3
##  6 Qn1      Quebec      675     39.2
##  7 Qn1      Quebec     1000     39.7
##  8 Qn2      Quebec       95     13.6
##  9 Qn2      Quebec      175     27.3
## 10 Qn2      Quebec      250     37.1
## # … with 74 more rows
```
]
---

# The power of the pipe

.pull-left[

```r
plant %>%
  select(plant_id, origin) 
```

```
## # A tibble: 84 x 2
##    plant_id origin
##    <ord>    <fct> 
##  1 Qn1      Quebec
##  2 Qn1      Quebec
##  3 Qn1      Quebec
##  4 Qn1      Quebec
##  5 Qn1      Quebec
##  6 Qn1      Quebec
##  7 Qn1      Quebec
##  8 Qn2      Quebec
##  9 Qn2      Quebec
## 10 Qn2      Quebec
## # … with 74 more rows
```
…
```
## [1] "plant_id"  "origin"    "treatment" "co2_conc"  "co2_rate"
```

--

#### Only plants from Mississippi

```r
plant %>%
  filter(origin == "Mississippi")
```

```
## # A tibble: 42 x 5
##    plant_id origin      treatment  co2_conc co2_rate
##    <ord>    <fct>       <fct>         <dbl>    <dbl>
##  1 Mn1      Mississippi nonchilled       95     10.6
##  2 Mn1      Mississippi nonchilled      175     19.2
##  3 Mn1      Mississippi nonchilled      250     26.2
##  4 Mn1      Mississippi nonchilled      350     30  
##  5 Mn1      Mississippi nonchilled      500     30.9
##  6 Mn1      Mississippi nonchilled      675     32.4
##  7 Mn1      Mississippi nonchilled     1000     35.5
##  8 Mn2      Mississippi nonchilled       95     12  
##  9 Mn2      Mississippi nonchilled      175     22  
## 10 Mn2      Mississippi nonchilled      250     30.6
## # … with 32 more rows
```
…
```
## [1] "plant_id"  "origin"    "treatment" "co2_conc"  "co2_rate"
```

#### Only plants with rate of co2 uptake of at least 30

```r
plant %>%
  filter(co2_rate >= 30)
```

```
## # A tibble: 41 x 5
##    plant_id origin treatment  co2_conc co2_rate
##    <ord>    <fct>  <fct>         <dbl>    <dbl>
##  1 Qn1      Quebec nonchilled      175     30.4
##  2 Qn1      Quebec nonchilled      250     34.8
##  3 Qn1      Quebec nonchilled      350     37.2
##  4 Qn1      Quebec nonchilled      500     35.3
##  5 Qn1      Quebec nonchilled      675     39.2
##  6 Qn1      Quebec nonchilled     1000     39.7
##  7 Qn2      Quebec nonchilled      250     37.1
##  8 Qn2      Quebec nonchilled      350     41.8
##  9 Qn2      Quebec nonchilled      500     40.6
## 10 Qn2      Quebec nonchilled      675     41.4
## # … with 31 more rows
```
…
```
## # A tibble: 0 x 5
## # … with 5 variables: plant_id <ord>, origin <fct>, treatment <fct>,
## #   co2_conc <dbl>, co2_rate <dbl>
```
--

```r
plant %>%
  ## Need to use the OR operator |
  filter(co2_conc == 500 | co2_conc == 675) 
```

```
## # A tibble: 24 x 5
##    plant_id origin treatment  co2_conc co2_rate
##    <ord>    <fct>  <fct>         <dbl>    <dbl>
##  1 Qn1      Quebec nonchilled      500     35.3
##  2 Qn1      Quebec nonchilled      675     39.2
##  3 Qn2      Quebec nonchilled      500     40.6
##  4 Qn2      Quebec nonchilled      675     41.4
##  5 Qn3      Quebec nonchilled      500     42.9
##  6 Qn3      Quebec nonchilled      675     43.9
##  7 Qc1      Quebec chilled         500     32.5
##  8 Qc1      Quebec chilled         675     35.4
##  9 Qc2      Quebec chilled         500     38.6
## 10 Qc2      Quebec chilled         675     37.5
## # … with 14 more rows
```
…
```
## [1] "plant_id"  "origin"    "treatment" "co2_conc"  "co2_rate"
```

#### Currently, `co2_conc` is in units mL/L. What if we want it in dL/L? 

--

```r
plant %>%
  mutate(co2_conc_dl = co2_conc / 10)
```

```
## # A tibble: 84 x 6
##    plant_id origin treatment  co2_conc co2_rate co2_conc_dl
##    <ord>    <fct>  <fct>         <dbl>    <dbl>       <dbl>
##  1 Qn1      Quebec nonchilled       95     16           9.5
##  2 Qn1      Quebec nonchilled      175     30.4        17.5
##  3 Qn1      Quebec nonchilled      250     34.8        25  
##  4 Qn1      Quebec nonchilled      350     37.2        35  
##  5 Qn1      Quebec nonchilled      500     35.3        50  
##  6 Qn1      Quebec nonchilled      675     39.2        67.5
##  7 Qn1      Quebec nonchilled     1000     39.7       100  
##  8 Qn2      Quebec nonchilled       95     13.6         9.5
##  9 Qn2      Quebec nonchilled      175     27.3        17.5
## 10 Qn2      Quebec nonchilled      250     37.1        25  
## # … with 74 more rows
```
…
--

.pull-left[
#### Arrange in order of `co2_rate`

```r
small_plant %>%
  arrange(co2_rate)
```

```
## # A tibble: 84 x 3
##    co2_rate co2_conc origin     
##       <dbl>    <dbl> <fct>      
##  1      7.7       95 Mississippi
##  2      9.3       95 Quebec     
##  3     10.5       95 Mississippi
##  4     10.6       95 Mississippi
##  5     10.6       95 Mississippi
##  6     11.3       95 Mississippi
##  7     11.4      175 Mississippi
##  8     12         95 Mississippi
##  9     12.3      250 Mississippi
## 10     12.5      500 Mississippi
## # … with 74 more rows
```
]

.pull-right[
#### Arrange in **descending** order of `co2_rate`

```r
small_plant %>%
  arrange(desc(co2_rate))
```

```
## # A tibble: 84 x 3
##    co2_rate co2_conc origin
##       <dbl>    <dbl> <fct> 
##  1     45.5     1000 Quebec
##  2     44.3     1000 Quebec
##  3     43.9      675 Quebec
##  4     42.9      500 Quebec
##  5     42.4     1000 Quebec
##  6     42.1      350 Quebec
##  7     41.8      350 Quebec
##  8     41.4      675 Quebec
##  9     41.4     1000 Quebec
## 10     40.6      500 Quebec
## # … with 74 more rows
```
…
#### Find the ratio of concentration/rate for all the plants from Quebec exposed to a "chilled" environment
+ First, make a plan - how would you do this **by hand**?
+ Second, WRITE YOUR PLAN DOWN
+ Third, go *line by line* to build up your plan

---

# Conc/rate ratio for chilled Quebec plants

```r
plant
```

```
## # A tibble: 84 x 5
##    plant_id origin treatment  co2_conc co2_rate
##    <ord>    <fct>  <fct>         <dbl>    <dbl>
##  1 Qn1      Quebec nonchilled       95     16  
##  2 Qn1      Quebec nonchilled      175     30.4
##  3 Qn1      Quebec nonchilled      250     34.8
##  4 Qn1      Quebec nonchilled      350     37.2
##  5 Qn1      Quebec nonchilled      500     35.3
##  6 Qn1      Quebec nonchilled      675     39.2
##  7 Qn1      Quebec nonchilled     1000     39.7
##  8 Qn2      Quebec nonchilled       95     13.6
##  9 Qn2      Quebec nonchilled      175     27.3
## 10 Qn2      Quebec nonchilled      250     37.1
## # … with 74 more rows
```
---

# Conc/rate ratio for chilled Quebec plants

```r
plant %>%
  filter(origin == "Quebec")
```

```
## # A tibble: 42 x 5
##    plant_id origin treatment  co2_conc co2_rate
##    <ord>    <fct>  <fct>         <dbl>    <dbl>
##  1 Qn1      Quebec nonchilled       95     16  
##  2 Qn1      Quebec nonchilled      175     30.4
##  3 Qn1      Quebec nonchilled      250     34.8
##  4 Qn1      Quebec nonchilled      350     37.2
##  5 Qn1      Quebec nonchilled      500     35.3
##  6 Qn1      Quebec nonchilled      675     39.2
##  7 Qn1      Quebec nonchilled     1000     39.7
##  8 Qn2      Quebec nonchilled       95     13.6
##  9 Qn2      Quebec nonchilled      175     27.3
## 10 Qn2      Quebec nonchilled      250     37.1
## # … with 32 more rows
```
---

# Conc/rate ratio for chilled Quebec plants

```r
plant %>%
  filter(origin == "Quebec") %>%
  filter(treatment == "chilled") 
```

```
## # A tibble: 21 x 5
##    plant_id origin treatment co2_conc co2_rate
##    <ord>    <fct>  <fct>        <dbl>    <dbl>
##  1 Qc1      Quebec chilled         95     14.2
##  2 Qc1      Quebec chilled        175     24.1
##  3 Qc1      Quebec chilled        250     30.3
##  4 Qc1      Quebec chilled        350     34.6
##  5 Qc1      Quebec chilled        500     32.5
##  6 Qc1      Quebec chilled        675     35.4
##  7 Qc1      Quebec chilled       1000     38.7
##  8 Qc2      Quebec chilled         95      9.3
##  9 Qc2      Quebec chilled        175     27.3
## 10 Qc2      Quebec chilled        250     35  
## # … with 11 more rows
```

---

# Conc/rate ratio for chilled Quebec plants

```r
plant %>%
  filter(origin == "Quebec") %>%
  filter(treatment == "chilled") %>%
  mutate(ratio = co2_conc / co2_rate)
```

```
## # A tibble: 21 x 6
##    plant_id origin treatment co2_conc co2_rate ratio
##    <ord>    <fct>  <fct>        <dbl>    <dbl> <dbl>
##  1 Qc1      Quebec chilled         95     14.2  6.69
##  2 Qc1      Quebec chilled        175     24.1  7.26
##  3 Qc1      Quebec chilled        250     30.3  8.25
##  4 Qc1      Quebec chilled        350     34.6 10.1 
##  5 Qc1      Quebec chilled        500     32.5 15.4 
##  6 Qc1      Quebec chilled        675     35.4 19.1 
##  7 Qc1      Quebec chilled       1000     38.7 25.8 
##  8 Qc2      Quebec chilled         95      9.3 10.2 
##  9 Qc2      Quebec chilled        175     27.3  6.41
## 10 Qc2      Quebec chilled        250     35    7.14
## # … with 11 more rows
```
…
